1;Álava;alava
2;Castellón;castellon
3;León;leon
4;Salamanca;salamanca
5;Albacete;albacete
6;Ceuta;ceuta
7;Lleida;lleida
8;Segovia;segovia
9;Alicante;alicante
10;"Ciudad Real";ciudad-real
11;Lugo;lugo
12;Sevilla;sevilla
13;Almería;almeria
14;Córdoba;cordoba
15;Madrid;madrid
16;Soria;soria
17;Asturias;asturias
18;"A Coruña";coruna
19;Málaga;malaga
20;Tarragona;tarragona
21;Ávila;avila
22;Cuenca;cuenca
23;Melilla;melilla
24;"S.C. Tenerife";tenerife
25;Badajoz;badajoz
26;Girona;girona
27;Murcia;murcia
28;Teruel;teruel
29;Baleares;baleares
30;Granada;granada
31;Navarra;navarra
32;Toledo;toledo
33;Barcelona;barcelona
34;Guadalajara;guadalajara
35;Ourense;ourense
36;Valencia;valencia
37;Burgos;burgos
38;Guipúzcoa;guipuzcoa
39;Palencia;palencia
40;Valladolid;valladolid
41;Cáceres;caceres
42;Huelva;huelva
43;"Las Palmas";palmas
44;Vizcaya;vizcaya
45;Cádiz;cadiz
46;Huesca;huesca
47;Pontevedra;pontevedra
48;Zamora;zamora
49;Cantabria;cantabria
50;Jaén;jaen
51;"La Rioja";rioja
52;Zaragoza;zaragoza
